<svg width="120" height="120" viewBox="0 0 120 120" fill="none" xmlns="http://www.w3.org/2000/svg">
<g clip-path="url(#clip0)">
<path d="M56.3245 0.142103C54.4959 0.379393 52.9744 0.714399 51.2994 1.25879C43.1476 3.9528 36.4894 10.8064 33.2649 19.8097C32.6368 21.5685 32.1482 23.1458 32.0366 23.8577C31.8551 24.9884 31.883 24.9744 30.0126 24.9744C29.0913 24.9744 28.3375 25.0023 28.3375 25.0302C28.3375 25.0721 28.533 25.6863 28.7842 26.3982C29.2309 27.6684 29.2309 27.7522 29.2449 30.2089C29.2449 32.6796 29.2309 32.7493 28.7842 34.1312C27.835 37.0486 25.9087 39.5751 23.4381 41.1803C22.1818 41.9899 22.2656 41.8503 22.5447 42.7158C22.9356 43.8604 22.8797 45.3958 22.4331 46.3729C21.9864 47.364 21.0232 48.3969 20.088 48.9134C19.1528 49.4159 17.2963 49.5694 16.2494 49.2065C15.8865 49.0809 15.5654 48.9971 15.5515 49.0251C15.5096 49.0669 16.3332 57.4979 16.6821 60.6386C16.8915 62.5928 18.4549 78.1845 18.6922 80.9483C19.0411 84.7032 19.418 87.9416 19.6274 88.7651C20.4649 92.1571 22.1678 95.6048 23.8708 97.3915C24.6246 98.1872 25.9646 99.0387 26.7742 99.248C27.5838 99.4435 77.5136 99.597 85.6515 99.4155L90.8162 99.3039L91.7235 98.8572C94.0685 97.6986 96.26 94.3486 97.6279 89.8399C98.0188 88.5697 98.1584 87.7182 98.3957 85.2755C98.5632 83.6284 98.7865 81.395 98.8982 80.3202C99.0936 78.5335 99.4844 74.6251 99.8055 71.3309C99.8753 70.5911 100.224 67.1991 100.587 63.7793C101.397 55.9764 101.397 55.9625 101.271 55.9625C101.173 55.9625 98.1025 58.1121 96.1763 59.5219C94.9898 60.3873 92.7006 62.0205 89.7553 64.0864C88.6386 64.868 86.3913 66.4733 84.7581 67.6598C83.111 68.8323 81.6733 69.8373 81.5477 69.8931C81.422 69.935 81.2545 70.0467 81.1708 70.1444C81.0452 70.284 79.1887 71.624 73.9123 75.3649C73.1446 75.9093 71.7348 76.9143 70.7716 77.5983C69.8085 78.2822 68.8454 78.9662 68.6081 79.1337C68.3847 79.2873 67.6868 79.7898 67.0726 80.2504C66.4584 80.711 65.8861 81.0879 65.7884 81.0879C65.7047 81.0879 65.607 81.1438 65.579 81.1996C65.5651 81.2554 64.909 81.7579 64.1413 82.3163C63.3736 82.8607 62.6198 83.419 62.4663 83.5446C62.0615 83.8657 61.2938 84.2426 60.6517 84.438C60.2189 84.5636 59.9398 84.5636 59.4931 84.4519C58.9766 84.3124 56.7851 82.9025 54.4401 81.2135C54.0213 80.9065 53.4211 80.4877 53.114 80.2644C52.8069 80.055 51.6763 79.2454 50.6015 78.4916C48.0331 76.663 47.726 76.4397 44.7528 74.3459C43.3709 73.3688 42.1007 72.4615 41.9472 72.3498C41.7936 72.2382 41.0399 71.7078 40.2721 71.1634C39.5044 70.619 38.8484 70.1444 38.8065 70.0886C38.7646 70.0327 38.5831 69.9071 38.3877 69.7954C38.1923 69.6977 37.1454 68.9719 36.0427 68.1902C31.9109 65.2728 31.6876 65.0356 31.6876 63.6955C31.6876 63.0395 31.7714 62.872 32.8182 61.3226C34.9539 58.1958 35.1354 58.0004 36.0427 57.6933C36.95 57.4002 37.6758 57.5956 38.8623 58.4611C39.3509 58.81 40.0907 59.3404 40.4955 59.6336C40.9142 59.9128 42.1286 60.7782 43.2034 61.5459C44.2782 62.3136 45.6043 63.2489 46.1347 63.6257C46.6791 63.9887 48.2704 65.1193 49.6942 66.1243C53.1419 68.5671 52.6813 68.2321 56.5339 70.9679C58.4183 72.308 60.0235 73.4107 60.1073 73.4107C60.2329 73.4107 63.0246 71.4844 65.6768 69.586C65.8303 69.4744 66.4864 68.9998 67.1424 68.5392C67.7985 68.0785 68.6499 67.4643 69.0408 67.1712C69.4456 66.8781 69.8783 66.557 70.0179 66.4593C70.6181 66.0545 74.6242 63.2209 74.7638 63.0953C74.9173 62.9697 78.3791 60.513 78.9095 60.15C79.077 60.0384 79.5655 59.7034 79.9843 59.3823C80.417 59.0752 80.8637 58.7542 80.9893 58.6844C81.3104 58.489 85.5119 55.46 86.3494 54.8318C86.7402 54.5247 87.1032 54.2874 87.159 54.2874C87.2148 54.2874 87.3265 54.2176 87.4242 54.1339C87.5219 54.0501 88.9178 53.0451 90.523 51.9145C92.1422 50.7699 93.5241 49.7788 93.5939 49.709C93.6777 49.6392 93.9289 49.4717 94.1523 49.3182C94.3896 49.1786 94.6408 49.0111 94.7106 48.9413C95.59 48.2573 96.5531 47.5873 96.7067 47.5873C96.7904 47.5873 96.8742 47.5315 96.8742 47.4757C96.8742 47.4198 97.5023 46.9313 98.284 46.4008C99.0657 45.8565 99.7636 45.3539 99.8474 45.2842C99.9451 45.2004 100.573 44.7398 101.243 44.2512C101.927 43.7627 102.527 43.2322 102.597 43.0647C102.653 42.8972 102.807 41.641 102.932 40.2591C103.058 38.8772 103.253 36.923 103.365 35.9319C103.63 33.6427 104.412 25.7142 104.412 25.2955V24.9744L95.3108 24.9465L86.1959 24.9046L85.9027 23.5786C84.8698 19.1258 82.7621 14.6032 80.0262 11.0019C74.708 3.99467 66.8353 -0.0812397 58.837 0.00251579C57.9995 0.01647 56.8689 0.0723095 56.3245 0.142103ZM61.3496 5.44636C66.1095 6.01866 70.1016 8.07058 73.8006 11.8673C75.2244 13.333 75.9782 14.2682 76.9413 15.7757C78.5326 18.2464 80.3891 22.5456 80.6264 24.3323L80.7241 24.9744L59.0325 24.9465L37.3408 24.9046L37.3827 24.444C37.4106 23.9694 38.2342 21.3871 38.625 20.5216C39.993 17.4507 40.6909 16.2224 42.2822 14.0867C43.2732 12.7607 45.0181 10.9321 46.037 10.1504C46.4697 9.81539 46.9164 9.48038 47.0002 9.38267C47.8935 8.54516 51.0621 6.89805 53.114 6.20012C55.3614 5.43239 58.7114 5.12531 61.3496 5.44636ZM43.8316 34.4244C44.3899 34.8013 44.6551 35.1781 44.8226 35.7784C45.032 36.56 44.8785 38.0117 44.5295 38.584C43.9851 39.4774 43.8595 39.4913 38.2481 39.4913C33.3208 39.4913 33.1812 39.4774 32.6507 39.1843C31.8551 38.7376 31.6457 38.1932 31.7155 36.6298C31.7574 35.4015 31.7853 35.2898 32.1762 34.885C32.4134 34.6338 32.7205 34.3825 32.8741 34.3267C33.0276 34.2569 35.4843 34.201 38.3179 34.201C42.9661 34.1871 43.5245 34.215 43.8316 34.4244ZM85.4281 34.4942C86.1121 34.9688 86.4053 35.6248 86.4053 36.6996C86.4053 37.8163 86.2657 38.3607 85.8329 38.8213C85.2048 39.4913 85.1769 39.4913 79.733 39.4913C74.6102 39.4913 74.5823 39.4913 74.1077 39.1703C73.4098 38.7097 73.1446 38.0815 73.1446 36.8392C73.1446 35.5969 73.4098 34.9688 74.1077 34.5081C74.5823 34.1871 74.6102 34.1871 79.7749 34.1871C84.9256 34.1871 84.9675 34.1871 85.4281 34.4942Z" fill="#ED0A2A"/>
<path d="M22.2602 120.001C24.1145 120.001 25.7627 119.269 26.7928 117.987L24.7326 116.132C24.206 116.865 23.2904 117.3 22.306 117.3C20.5891 117.3 19.3987 115.995 19.3987 114.095C19.3987 112.195 20.5662 110.89 22.2602 110.89C23.1988 110.89 24.0916 111.279 24.6181 111.943L26.5868 109.974C25.488 108.83 23.9313 108.189 22.2373 108.189C18.8035 108.189 16.1938 110.753 16.1938 114.095C16.1938 117.529 18.8951 120.001 22.2602 120.001Z" fill="#ED0A2A"/>
<path d="M38.9144 118.17L37.2204 116.201C36.5337 116.888 35.6638 117.346 34.5421 117.346C33.0083 117.346 31.795 116.43 31.4745 115.057H39.7157V113.866C39.7157 110.615 37.312 108.189 34.0384 108.189C30.7878 108.189 28.3383 110.73 28.3383 114.049C28.3383 117.483 30.9022 120.001 34.4276 120.001C35.9156 120.001 37.747 119.406 38.9144 118.17ZM34.1071 110.799C35.3662 110.799 36.4879 111.646 36.7168 112.905H31.5432C31.8637 111.623 32.8938 110.799 34.1071 110.799Z" fill="#ED0A2A"/>
<path d="M45.8041 103.702H42.6221V119.727H45.8041V116.567L46.9716 115.377L50.0621 119.727H53.9308L48.9861 113.271L53.6561 108.464H49.6042L45.8041 112.79V103.702Z" fill="#ED0A2A"/>
<path d="M55.0129 108.464V111.005H56.7756V116.087C56.7756 118.834 58.1034 120.001 60.5528 120.001C61.2853 120.001 62.43 119.749 62.9336 119.406L62.201 116.957C61.995 117.163 61.7203 117.3 61.2854 117.3C60.4383 117.3 59.9576 116.842 59.9576 115.949V111.005H62.4986V108.464H59.9576V105.442H56.7756V108.464H55.0129Z" fill="#ED0A2A"/>
<path d="M73.4953 114.095C73.4953 115.995 72.3278 117.3 70.6567 117.3C68.9856 117.3 67.8181 115.995 67.8181 114.095C67.8181 112.195 68.9856 110.89 70.6567 110.89C72.3278 110.89 73.4953 112.195 73.4953 114.095ZM76.7002 114.095C76.7002 110.753 74.0676 108.189 70.6567 108.189C67.2458 108.189 64.6132 110.753 64.6132 114.095C64.6132 117.437 67.2458 120.001 70.6567 120.001C74.0676 120.001 76.7002 117.437 76.7002 114.095Z" fill="#ED0A2A"/>
<path d="M82.7949 103.702H79.6129V119.727H82.7949V116.567L83.9624 115.377L87.0529 119.727H90.9216L85.9769 113.271L90.6469 108.464H86.595L82.7949 112.79V103.702Z" fill="#ED0A2A"/>
<path d="M100.511 114.095C100.511 115.995 99.3431 117.3 97.672 117.3C96.0009 117.3 94.8334 115.995 94.8334 114.095C94.8334 112.195 96.0009 110.89 97.672 110.89C99.3431 110.89 100.511 112.195 100.511 114.095ZM103.716 114.095C103.716 110.753 101.083 108.189 97.672 108.189C94.2611 108.189 91.6285 110.753 91.6285 114.095C91.6285 117.437 94.2611 120.001 97.672 120.001C101.083 120.001 103.716 117.437 103.716 114.095Z" fill="#ED0A2A"/>
</g>
<defs>
<clipPath id="clip0">
<rect width="120" height="120" fill="white"/>
</clipPath>
</defs>
</svg>
