<svg width="24" height="24" viewBox="0 0 24 24" fill="none" xmlns="http://www.w3.org/2000/svg">
<path d="M0.79932 22.6279C0.34332 22.3906 -0.0166797 22.182 0.000858774 22.1654C0.0590126 22.1073 2.24209 21.6411 3.76701 21.3614C7.06701 20.7568 10.9901 20.2722 14.8975 19.9879C16.5064 19.8706 22.3282 19.867 23.3381 19.9823L23.9999 20.058L23.2541 20.07C21.9295 20.0903 18.8916 20.3026 16.511 20.5417C12.0055 20.9931 6.99686 21.8266 3.37378 22.7257C2.63347 22.9103 1.9384 23.0599 1.82855 23.0599C1.7187 23.0599 1.25624 22.866 0.79932 22.6279ZM7.0984 18.0937C7.03101 17.9063 7.3144 17.8223 7.43717 17.7697C7.99194 17.5316 8.3824 17.1439 8.51347 16.7017C8.57532 16.4894 8.7664 15.2922 8.93624 14.0405C9.10609 12.7888 9.25932 11.8205 9.27594 11.7642C9.28794 11.7217 9.32209 11.5722 9.50117 11.5565C9.95994 11.5519 10.2996 11.5583 10.7695 11.5583C11.0289 11.5334 10.9781 11.8168 10.9578 11.9986C10.9375 12.2285 10.8756 12.6716 10.8036 13.2125C10.7159 13.8725 10.5839 14.8593 10.5119 15.4048C10.3485 16.6306 10.2581 17.0082 9.97563 17.6405C9.64055 18.3919 9.12732 18.8285 8.19686 19.1386C8.00855 19.1977 7.4704 19.3814 7.41132 19.218C7.2904 18.8285 7.20363 18.4897 7.0984 18.0937ZM17.7821 17.682C17.1618 17.4319 17.1913 16.4654 17.8412 16.0685C18.2529 15.8183 18.8316 15.8608 19.1279 16.158C19.8609 16.89 18.7836 18.0863 17.7821 17.682ZM13.0956 17.1051C11.2735 16.7931 11.2855 14.6202 11.6935 13.3786C12.2049 11.9405 13.451 11.5233 14.4747 11.4873C15.3396 11.4577 16.5378 11.6183 16.8387 11.8039C16.9218 11.8556 16.8821 12.3531 16.6504 14.2011C16.4889 15.4833 16.3125 16.5863 16.259 16.6519C15.9701 16.9999 14.0362 17.2768 13.0956 17.1051ZM14.6861 15.3845C14.8818 14.6571 14.9639 13.9999 15.1042 13.2319C15.0867 12.967 14.6399 12.9651 14.5264 12.9642C13.9347 12.9642 13.5849 13.2965 13.3993 14.035C13.1455 15.0485 13.4113 15.6125 14.1415 15.6125C14.3722 15.5913 14.6132 15.6042 14.6861 15.3845ZM1.36424 16.518C1.8627 15.3014 3.86394 10.9436 4.34394 10.0408C4.43532 9.81557 4.6744 9.77126 4.83778 9.75557C5.30855 9.73341 5.71563 9.73987 6.12917 9.74264C6.5547 9.74634 6.56117 9.89587 6.61563 10.2125C6.68301 10.5273 7.51378 15.4888 7.70117 16.6796C7.72609 16.8771 7.77409 16.939 7.51655 16.939C7.16024 16.9399 6.30178 16.9869 6.01009 16.9648C5.91686 16.9528 5.85686 16.8919 5.84209 16.8226C5.81532 16.6953 5.78486 16.4756 5.76455 16.2476L5.71194 15.654H4.64301H3.57317L3.33963 16.2245C3.25655 16.4276 3.16517 16.6279 3.09778 16.7599C3.0507 16.8817 2.97963 16.938 2.87347 16.9611C2.61224 16.9593 1.68455 16.9934 1.33563 16.9629C1.16301 16.8836 1.31901 16.6297 1.36424 16.518ZM5.52363 14.0026C5.49317 13.6814 5.28824 12.0291 5.24024 11.7845C5.22732 11.7586 5.22178 11.767 5.20886 11.7826C5.0824 11.9719 4.39932 13.65 4.28301 14.0396C4.26824 14.0931 4.30332 14.1125 4.35409 14.1088C4.52763 14.0968 5.23655 14.083 5.45163 14.0746C5.51347 14.07 5.51901 14.0488 5.52363 14.0026ZM17.8642 14.8057C17.8919 14.5897 17.9519 14.0036 17.999 13.5023C18.0452 13.002 18.119 12.2202 18.1633 11.7651C18.1975 11.4199 18.227 11.0839 18.2399 10.9076C18.2658 10.7497 18.4569 10.7313 18.5824 10.7294C19.0015 10.734 19.3956 10.7091 19.7722 10.7442C19.9504 10.7626 20.0252 10.8014 20.0261 10.9076C19.8562 11.779 19.2452 14.7854 19.1981 14.971C19.1575 15.1316 19.1418 15.1796 18.8962 15.1934C18.5962 15.1879 18.3461 15.2036 18.0415 15.2026C17.867 15.1999 17.8199 15.1491 17.8642 14.8057ZM9.41255 10.3399C9.41255 9.80818 9.75409 9.40387 10.1824 9.23311C10.5516 9.10388 10.9661 9.10388 11.1867 9.35588C11.5781 9.81187 11.3215 10.4839 10.8646 10.8346C10.2784 11.238 9.42178 10.999 9.41255 10.3399ZM19.9125 9.22018C19.7842 8.93587 19.3735 8.03864 18.9996 7.22634C18.6258 6.41311 18.3396 5.69772 18.3636 5.63403C18.3885 5.57126 18.8049 5.05341 19.2904 4.48388L20.0796 3.55711C20.1313 3.49434 20.1904 3.41772 20.2624 3.4168C20.7387 3.41957 21.2316 3.44726 21.6858 3.44357C22.0236 3.43988 22.1944 3.41864 21.9433 3.67341C21.7827 3.87188 21.4661 4.23649 21.1033 4.63526C20.5799 5.21311 20.1516 5.70141 20.1516 5.71988C20.1516 5.73926 20.5449 6.60141 21.0239 7.63618C21.4015 8.44941 21.7125 9.1768 21.8178 9.48049C21.8621 9.58387 21.8224 9.67249 21.7273 9.69649C21.5999 9.72603 21.3719 9.73711 20.9787 9.73711H20.3898C20.2458 9.7528 20.1405 9.72695 20.0852 9.60418L19.9125 9.22018ZM2.29747 8.61464C1.76763 8.35064 1.51747 8.01649 1.47224 7.51341C1.44455 7.21157 1.9384 3.15464 2.15717 1.86511C2.2107 1.56234 2.23378 1.5448 2.52363 1.5448H3.09501C3.39501 1.5448 3.66824 1.54018 3.83994 1.54941C4.07532 1.55311 4.03194 1.7008 4.0144 1.87803C3.97378 2.27403 3.84824 3.13064 3.6904 4.23372C3.40978 6.19157 3.3387 6.88203 3.40609 6.98818C3.48455 7.1128 3.68301 7.13311 5.00301 7.15341L6.18363 7.17095C6.46424 7.15526 6.5224 7.22449 6.4947 7.47649C6.4264 7.89464 6.38855 8.22788 6.32024 8.60172C6.27317 8.83526 6.12178 8.77434 5.88732 8.78911L4.50732 8.80757C2.73778 8.82972 2.72855 8.82972 2.29747 8.61464ZM15.9092 8.76511C15.8907 8.73095 15.9405 8.25649 16.019 7.71003C16.0965 7.16357 16.2599 5.99034 16.3818 5.10326C16.7261 2.58418 16.8396 1.82449 16.8876 1.53465C16.9384 1.19495 16.9384 1.21434 17.2707 1.21434H17.7978C18.0027 1.21434 18.1633 1.21157 18.287 1.21526C18.7596 1.23095 18.6996 1.18941 18.5805 1.92234C18.5353 2.19926 18.3849 3.4168 18.2464 4.44141C17.8984 7.02049 17.6695 8.60172 17.627 8.72357C17.5882 8.83803 15.9682 8.87772 15.9092 8.76511ZM6.91193 8.56849C7.13163 6.72603 7.34117 5.33218 7.58486 3.61711C7.60332 3.41218 7.80547 3.38818 8.04086 3.38818C8.30947 3.38818 8.58178 3.38449 8.83747 3.3928C9.33224 3.39464 9.46147 3.46111 9.4107 3.79157C9.19193 5.40141 8.92055 6.83864 8.63624 8.47526C8.5827 8.75218 8.51809 8.74388 8.25317 8.74388C7.94486 8.74572 7.39747 8.75587 7.11778 8.74757C6.9544 8.71895 6.91747 8.70049 6.91193 8.56849ZM10.403 4.44326C10.5387 3.73064 10.6329 3.61895 10.8304 3.48972C11.0732 3.33095 12.8704 3.1648 13.4907 3.24418C13.5775 3.25618 13.6596 3.27188 13.7381 3.29126C15.5556 3.72234 15.2732 5.7808 15.155 6.72788C15.0304 7.63157 14.9086 8.45587 14.8836 8.55834C14.8402 8.73649 14.8015 8.74388 13.9781 8.74388C13.7012 8.74388 13.5572 8.73464 13.3993 8.71987C13.1455 8.70326 13.1215 8.64603 13.1473 8.46141C13.2396 7.70541 13.3652 7.05372 13.4584 6.34849C13.583 5.3848 13.5498 4.43403 12.3544 4.63803C12.1495 4.69064 12.0941 4.70726 12.0655 4.91126C11.9169 5.86295 11.7858 6.84511 11.6492 7.77649C11.6187 7.99803 11.5772 8.23064 11.5347 8.43649C11.5227 8.48818 11.5172 8.53526 11.5079 8.57034C11.495 8.61095 11.4673 8.65434 11.4396 8.61188C11.2476 8.26203 10.3439 8.32018 9.96732 8.5768C9.77809 8.7088 9.73932 8.77895 9.81686 8.37834C9.82978 8.29341 9.84363 8.20849 9.85655 8.12357C10.043 6.89588 10.1695 5.68757 10.403 4.44326ZM7.82301 2.33403C7.62086 1.64541 8.22178 0.965107 8.89563 0.941107C9.80763 0.880184 10.0596 2.13464 9.1264 2.70418C8.58547 2.95157 8.01778 2.89895 7.82301 2.33403Z" fill="#E9232A"/>
</svg>
